<?xml version="1.0" encoding="utf-8"?>
<!-- Generator: Adobe Illustrator 23.0.3, SVG Export Plug-In . SVG Version: 6.00 Build 0)  -->
<svg version="1.1" id="Layer_1" xmlns="http://www.w3.org/2000/svg" xmlns:xlink="http://www.w3.org/1999/xlink" x="0px" y="0px"
	 viewBox="0 0 243 42.5" style="enable-background:new 0 0 243 42.5;" xml:space="preserve">
<style type="text/css">
	.st0{fill:#1B1D1F;}
</style>
<g>
	<g>
		<path class="st0" d="M21.3,42.5C9.5,42.5,0,33,0,21.3C0,9.5,9.5,0,21.3,0C33,0,42.5,9.5,42.5,21.3C42.5,33,33,42.5,21.3,42.5z
			 M21.2,12.9c0,0,1.7,1.8,1.7,3.3c0,1.6-1.2,2-1.6,2c0,0,0,0-0.1,0h0c0,0-0.1,0-0.1,0c-0.4,0-1.6-0.4-1.6-2
			C19.5,14.7,21.1,12.9,21.2,12.9z M5.2,22.4h1.9v-3.6h3.3v-1.5H7.1v-2h3.4v-1.5H5.2V22.4z M22.9,13.1h2l-2.4-8.6H20l-2.5,8.6h1.9
			l0.5-1.9h2.5L22.9,13.1z M22.1,9.8h-1.8L21.1,6h0.1L22.1,9.8z M31.1,18.2c0,2.5,1.2,4.4,3.6,4.4c2.5,0,3.7-1.9,3.7-4.4
			c0-2.5-1.2-4.4-3.7-4.4C32.2,13.7,31.1,15.6,31.1,18.2z M33.1,18.2c0-1.6,0.4-3,1.6-3c1.2,0,1.6,1.3,1.6,3c0,1.6-0.4,3-1.6,3
			C33.5,21.1,33.1,19.8,33.1,18.2z M20.4,40.1c0.1-0.8,0.2-2.2,0.2-3.7c0-0.4,0-0.1,0-0.3c0-2.2-0.1-2.9-1.5-3.4
			c-2.3-0.8-3.2-3.3-2.7-6.4L8.8,7.1c-3.9,3.5-6.4,8.5-6.4,14.2C2.4,31.4,10.4,39.7,20.4,40.1z M21.3,27.9c-3-0.7-4.1-3.4-4.1-5.9
			L10.5,5.7c-0.4,0.3-0.9,0.6-1.3,1c1.5,3.5,8,19,8,19c1.2,2.8,3.3,1.9,3.8,4.2c0.1,0.6,0.1,0.8,0.1,0.8h0.2c0,0,0-0.2,0.1-0.8
			c0.5-2.3,2.6-1.4,3.8-4.2c0,0,6.6-15.5,8-19c-0.4-0.3-0.8-0.7-1.3-1L25.4,22C25.4,24.4,24.3,27.2,21.3,27.9L21.3,27.9z M21.2,23
			c-1.3-0.3-2.9-1.6-3.1-3.2c-0.1-0.6-0.1-0.8,0-2L12.3,4.6c-0.5,0.3-0.9,0.5-1.4,0.8c1.7,3.9,7,15.8,7.1,15.8
			c0.8,1.8,2.3,1.8,2.8,2.9c0.3,0.6,0.3,1.2,0.3,1.2h0.2c0,0,0-0.6,0.3-1.2c0.5-1.1,2-1.1,2.8-2.9c0,0,5.3-11.9,7.1-15.8
			c-0.4-0.3-0.9-0.6-1.4-0.8l-5.8,13.1c0.1,1.2,0,1.4,0,2C24.1,21.4,22.5,22.7,21.2,23L21.2,23z M21.3,20.7l0.1-0.7
			c0.4-1.7,1.6-1.5,2.4-3.1c0,0,0,0,0,0c0-0.1,4.1-8.9,5.8-12.6c-2.5-1.3-5.4-2-8.4-2c-3,0-5.9,0.7-8.4,2c1.7,3.7,5.8,12.5,5.9,12.6
			c0,0,0,0,0,0c0.8,1.6,2,1.4,2.4,3.1l0.1,0.7H21.3z M40.2,21.3c0-5.6-2.5-10.7-6.4-14.2l-7.6,19.2c0.5,3.1-0.4,5.7-2.7,6.4
			c-1.5,0.5-1.5,1.2-1.5,3.4c0,0.1,0-0.2,0,0.3c0,1.6,0.1,2.9,0.2,3.7C32.2,39.7,40.2,31.4,40.2,21.3z M8.3,26.8c0,0,0.3,0.6,0.5,1
			c0.2,0.4,0.5,0.9,0.5,0.9l-0.5,0.3c0,0-0.4-0.6-0.7-1.4c-0.1,0-0.7,0.4-0.8,0.4C7.4,28.2,8,29.4,8,29.4l-0.5,0.3
			c0,0-0.6-1.2-0.7-1.3c-0.1,0.1-1.4,0.7-1.4,0.7l-0.3-0.6L8.3,26.8L8.3,26.8z M10.3,30.1l0.4,0.5L8,32.9l-0.4-0.5L10.3,30.1
			L10.3,30.1z M12.9,32.5l0.5,0.4l-0.7,3.8l-0.6-0.4c0,0,0.2-0.8,0.2-0.8c0,0-0.4-0.2-0.7-0.5c-0.4-0.3-0.7-0.5-0.7-0.6
			c-0.1,0-0.8,0.5-0.8,0.5l-0.5-0.5L12.9,32.5L12.9,32.5z M11.3,34.1c0.1,0.1,0.3,0.2,0.5,0.4c0.2,0.2,0.5,0.3,0.6,0.4
			c0-0.2,0.3-1.4,0.3-1.6C12.5,33.4,11.4,34,11.3,34.1z M15.2,33.9c0,0,0.6,0.3,1.4,0.6c0.6,0.2,1,0.3,1.5,0.5l-0.2,0.5
			c0,0-0.4-0.1-1.2-0.3c0,0.1-1,2.8-1,2.8l-0.6-0.2c0,0,0.9-2.7,1-2.8c-0.7-0.3-1.2-0.5-1.2-0.5L15.2,33.9z M26.5,34.6
			c0.2,0.1,0.4,0.3,0.5,0.7c0,0.1,0.1,0.3,0.1,0.4c0,0.5-0.4,0.9-1,1.1c0,0-0.3,0.1-0.4,0.1c0,0.1,0.4,1.3,0.4,1.3l-0.6,0.2
			l-1.1-3.5l1-0.3C25.8,34.5,26.2,34.5,26.5,34.6z M25.2,35.3c0,0.1,0.3,1,0.3,1.1c0.1,0,0.4-0.1,0.4-0.1c0.1,0,0.3-0.1,0.4-0.3
			c0-0.1,0.1-0.1,0.1-0.2c0-0.1,0-0.1,0-0.2c0-0.1-0.1-0.2-0.2-0.3c-0.2-0.1-0.5-0.1-0.6,0C25.5,35.2,25.3,35.3,25.2,35.3z
			 M28.7,33.1l3.1,2.3l-0.6,0.4c0,0-0.6-0.5-0.7-0.5c0,0-0.4,0.2-0.7,0.5c-0.3,0.2-0.7,0.4-0.7,0.4c0,0.1,0.1,0.8,0.1,0.8l-0.6,0.3
			l-0.5-3.8L28.7,33.1z M29,35.5c0.1,0,0.3-0.2,0.6-0.3c0.2-0.1,0.4-0.2,0.5-0.3c-0.1-0.1-1.1-0.8-1.3-1C28.8,34.2,29,35.4,29,35.5z
			 M32.2,30l2.7,2.4L34.5,33c0,0-2.6-0.7-2.9-0.9c0.3,0.3,1.9,1.9,1.9,1.9l-0.5,0.4l-2.6-2.6l0.6-0.5c0,0,2.5,0.7,2.9,0.8
			c-0.3-0.3-2-1.7-2-1.7L32.2,30z M33.5,28.2l3.2,1.8l-0.3,0.6l-3.2-1.8L33.5,28.2z M34.9,25.1l0.5,0.3l-0.1,0.1
			c-0.2,0.2-0.3,0.3-0.3,0.6c0,0.1-0.1,0.3,0,0.5c0,0.1,0.1,0.1,0.2,0.2c0.2,0.1,0.4-0.1,0.7-0.4c0.3-0.3,0.7-0.8,1.4-0.5
			c0.7,0.2,0.9,0.8,0.6,1.7c-0.1,0.2-0.2,0.5-0.4,0.7l0,0L37,27.9l0.1-0.1c0.1-0.1,0.3-0.4,0.4-0.6c0.1-0.2,0.1-0.6-0.3-0.8
			c-0.3-0.1-0.5,0.1-0.8,0.4c-0.3,0.3-0.7,0.7-1.3,0.5c-0.3-0.1-0.5-0.3-0.6-0.5c-0.1-0.3-0.1-0.6,0-1
			C34.5,25.6,34.7,25.4,34.9,25.1L34.9,25.1z"/>
	</g>
	<g>
		<path class="st0" d="M51.1,4.9h5.6v8.4h-1.5V6.1h-2.5v7.1h-1.5V4.9z"/>
		<path class="st0" d="M58.5,8.9c0-0.6,0-1.4-0.1-1.8h1.4c0,0.3,0,0.6,0.1,0.9h0C60.2,7.4,60.7,7,61.5,7c1.4,0,2.3,1.3,2.3,3.2
			c0,1.9-0.8,3.3-2.2,3.3c-0.8,0-1.3-0.3-1.6-1h0c0,0.3,0,1,0,1.5v1.9h-1.5V8.9z M62.2,10.2c0-1.2-0.4-2.1-1.1-2.1
			c-0.8,0-1.2,0.9-1.2,2.1c0,1.2,0.4,2.1,1.2,2.1C61.8,12.3,62.2,11.4,62.2,10.2z"/>
		<path class="st0" d="M65,10.2C65,8.3,66,7,67.7,7c1.7,0,2.7,1.3,2.7,3.2c0,1.9-1,3.2-2.7,3.2C65.9,13.4,65,12.1,65,10.2z
			 M68.8,10.2c0-1.3-0.4-2.1-1.2-2.1c-0.7,0-1.1,0.8-1.1,2.1c0,1.2,0.4,2.1,1.2,2.1C68.4,12.3,68.8,11.5,68.8,10.2z"/>
		<path class="st0" d="M71.1,12.1h0.6c0.4-0.7,0.6-1.7,0.6-3.2V7.1h4.5v5h0.7v2.8h-1.3v-1.6h-3.8v1.6h-1.3V12.1z M75.3,12.1V8.3
			h-1.6v0.9c0,1.1-0.1,2.2-0.5,2.9H75.3z"/>
		<path class="st0" d="M78.4,10.2c0-1.9,1-3.2,2.7-3.2c1.7,0,2.7,1.3,2.7,3.2c0,1.9-1,3.2-2.7,3.2C79.4,13.4,78.4,12.1,78.4,10.2z
			 M82.3,10.2c0-1.3-0.4-2.1-1.2-2.1c-0.7,0-1.1,0.8-1.1,2.1c0,1.2,0.4,2.1,1.2,2.1C81.9,12.3,82.3,11.5,82.3,10.2z"/>
		<path class="st0" d="M85.3,7.1H88c1.2,0,2,0.6,2,1.6c0,0.8-0.5,1.2-1.1,1.4c0.7,0.1,1.2,0.6,1.2,1.5c0,1.2-0.8,1.8-2.1,1.8h-2.7
			V7.1z M87.7,9.6c0.5,0,0.7-0.3,0.7-0.7c0-0.5-0.3-0.7-0.7-0.7h-0.9v1.4H87.7z M87.8,12.2c0.5,0,0.8-0.3,0.8-0.8
			c0-0.5-0.3-0.8-0.8-0.8h-1v1.6H87.8z"/>
		<path class="st0" d="M91.3,10.2c0-1.9,1-3.2,2.7-3.2c1.7,0,2.7,1.3,2.7,3.2c0,1.9-1,3.2-2.7,3.2C92.3,13.4,91.3,12.1,91.3,10.2z
			 M95.1,10.2c0-1.3-0.4-2.1-1.2-2.1c-0.7,0-1.1,0.8-1.1,2.1c0,1.2,0.4,2.1,1.2,2.1C94.8,12.3,95.1,11.5,95.1,10.2z"/>
		<path class="st0" d="M97.4,13.3l0.1-1.2c0.1,0,0.2,0.1,0.4,0.1c0.8,0,0.9-0.5,0.9-5h4.4v6.2h-1.5v-5h-1.5
			c-0.1,4.1-0.4,5.1-1.9,5.1C98,13.4,97.6,13.3,97.4,13.3z"/>
		<path class="st0" d="M105,7.1h1.5v2.3h1.1c1.2,0,2.1,0.7,2.1,2c0,1.3-0.8,2-2.4,2H105V7.1z M107.4,12.2c0.6,0,0.9-0.4,0.9-0.9
			c0-0.6-0.3-0.9-0.9-0.9h-1v1.8H107.4z"/>
		<path class="st0" d="M110.8,10.2c0-1.9,1.1-3.2,3-3.2c0.3,0,0.7,0,1,0.1l-0.1,1.2c-0.2-0.1-0.4-0.1-0.7-0.1c-1,0-1.6,0.9-1.6,2
			c0,1.2,0.6,2,1.7,2c0.2,0,0.5,0,0.7-0.1l0.1,1.2c-0.3,0.1-0.6,0.1-1.1,0.1C111.9,13.4,110.8,12.1,110.8,10.2z"/>
		<path class="st0" d="M117.2,8.3h-1.6V7.1h4.7v1.2h-1.6v5h-1.5V8.3z"/>
		<path class="st0" d="M121.5,7.1h2.7c1.2,0,2,0.6,2,1.6c0,0.8-0.5,1.2-1.1,1.4c0.7,0.1,1.2,0.6,1.2,1.5c0,1.2-0.8,1.8-2.1,1.8h-2.7
			V7.1z M123.9,9.6c0.5,0,0.7-0.3,0.7-0.7c0-0.5-0.3-0.7-0.7-0.7H123v1.4H123.9z M124,12.2c0.5,0,0.8-0.3,0.8-0.8
			c0-0.5-0.3-0.8-0.8-0.8h-1v1.6H124z"/>
		<path class="st0" d="M127.5,10.2c0-1.9,1.1-3.2,2.7-3.2c1.6,0,2.4,1.1,2.4,3.1c0,0.2,0,0.4,0,0.6H129c0,0.9,0.6,1.6,1.8,1.6
			c0.5,0,0.9-0.1,1.4-0.3l0,1.2c-0.5,0.2-1,0.3-1.6,0.3C128.6,13.4,127.5,12.2,127.5,10.2z M131.3,9.6c0-1-0.4-1.7-1.1-1.7
			c-0.7,0-1.2,0.6-1.2,1.7H131.3z"/>
		<path class="st0" d="M134.1,7.1h1.5v2.4h1.9V7.1h1.5v6.2h-1.5v-2.6h-1.9v2.6h-1.5V7.1z"/>
		<path class="st0" d="M140.8,7.1h1.5v2.4h1.9V7.1h1.5v6.2h-1.5v-2.6h-1.9v2.6h-1.5V7.1z"/>
		<path class="st0" d="M147.3,11.5c0-1.3,1-2.1,2.8-2.1c0.2,0,0.5,0,0.8,0v0c0-0.9-0.4-1.4-1.3-1.4c-0.6,0-1.2,0.2-1.7,0.5l-0.1-1.2
			c0.6-0.3,1.3-0.4,2-0.4c1.8,0,2.4,1,2.4,2.5c0,0.6,0,1.5,0,1.9c0,0.7,0,1.4,0.1,1.9H151c0-0.1,0-0.3,0-0.5c0-0.1,0-0.3,0-0.5h0
			c-0.3,0.7-0.9,1.1-1.8,1.1C148,13.4,147.3,12.6,147.3,11.5z M150.9,10.4c-0.1,0-0.3,0-0.5,0c-1.1,0-1.7,0.4-1.7,1.1
			c0,0.5,0.3,0.9,0.9,0.9C150.5,12.4,150.9,11.5,150.9,10.4z"/>
		<path class="st0" d="M154.9,10.9c-1-0.4-1.2-1.3-1.2-1.8c0-1.3,0.8-2,2.4-2h2.3v6.2H157v-2.2h-0.7l-1.2,2.2h-1.7L154.9,10.9z
			 M157,10V8.2h-0.8c-0.7,0-1,0.3-1,0.9c0,0.6,0.4,0.9,1,0.9H157z"/>
		<path class="st0" d="M163.1,7.1h1.4v2.3c0,0.6,0,1.4,0,1.9l1.9-4.3h1.7v6.2h-1.4v-2.6c0-0.7,0-1.2,0-1.6l-1.9,4.2h-1.7V7.1z"/>
		<path class="st0" d="M50.7,23.7c0-1.9,1.1-3.2,3-3.2c0.3,0,0.7,0,1,0.1l-0.1,1.2c-0.2-0.1-0.4-0.1-0.7-0.1c-1,0-1.6,0.9-1.6,2
			c0,1.2,0.6,2,1.7,2c0.2,0,0.5,0,0.7-0.1l0.1,1.2c-0.3,0.1-0.6,0.1-1.1,0.1C51.8,26.9,50.7,25.7,50.7,23.7z"/>
		<path class="st0" d="M55.6,23.7c0-1.9,1.1-3.2,2.7-3.2c1.6,0,2.4,1.1,2.4,3.1c0,0.2,0,0.4,0,0.6h-3.6c0,0.9,0.6,1.6,1.8,1.6
			c0.5,0,0.9-0.1,1.4-0.3l0,1.2c-0.5,0.2-1,0.3-1.6,0.3C56.7,27,55.6,25.7,55.6,23.7z M59.4,23.2c0-1-0.4-1.7-1.1-1.7
			c-0.7,0-1.2,0.6-1.2,1.7H59.4z"/>
		<path class="st0" d="M61.5,26.8l0.1-1.2c0.1,0,0.2,0.1,0.4,0.1c0.8,0,0.9-0.5,0.9-5h4.4v6.2h-1.5v-5h-1.5
			c-0.1,4.1-0.4,5.1-1.9,5.1C62.1,26.9,61.6,26.9,61.5,26.8z"/>
		<path class="st0" d="M69.1,20.7h1.5v2.3h1.1c1.2,0,2.1,0.7,2.1,2c0,1.3-0.8,2-2.4,2h-2.4V20.7z M71.5,25.8c0.6,0,0.9-0.4,0.9-0.9
			c0-0.6-0.3-0.9-0.9-0.9h-1v1.8H71.5z"/>
		<path class="st0" d="M74.9,23.7c0-1.9,1.1-3.2,3-3.2c0.3,0,0.7,0,1,0.1l-0.1,1.2c-0.2-0.1-0.4-0.1-0.7-0.1c-1,0-1.6,0.9-1.6,2
			c0,1.2,0.6,2,1.7,2c0.2,0,0.5,0,0.7-0.1l0.1,1.2c-0.3,0.1-0.6,0.1-1.1,0.1C76,26.9,74.9,25.7,74.9,23.7z"/>
		<path class="st0" d="M80.3,20.7h1.5v2.7l1.9-2.7h1.6l-2.1,2.9l2.3,3.3h-1.7l-2-2.9v2.9h-1.5V20.7z"/>
		<path class="st0" d="M85.9,23.7c0-1.9,1-3.2,2.7-3.2c1.7,0,2.7,1.3,2.7,3.2c0,1.9-1,3.2-2.7,3.2C86.9,27,85.9,25.7,85.9,23.7z
			 M89.8,23.8c0-1.3-0.4-2.1-1.2-2.1c-0.7,0-1.1,0.8-1.1,2.1c0,1.2,0.4,2.1,1.2,2.1C89.4,25.8,89.8,25,89.8,23.8z"/>
		<path class="st0" d="M93.9,23.6l-1.7-2.9h1.7c0.6,1.3,0.9,1.8,1,2.2h0c0.1-0.3,0.3-0.9,1-2.2h1.5l-1.7,2.9l1.8,3.2h-1.7
			c-0.7-1.5-1-2.1-1.1-2.4h0c-0.1,0.3-0.4,0.9-1.1,2.4H92L93.9,23.6z"/>
		<path class="st0" d="M98.2,23.7c0-1.9,1-3.2,2.7-3.2c1.7,0,2.7,1.3,2.7,3.2c0,1.9-1,3.2-2.7,3.2C99.2,27,98.2,25.7,98.2,23.7z
			 M102.1,23.8c0-1.3-0.4-2.1-1.2-2.1c-0.7,0-1.1,0.8-1.1,2.1c0,1.2,0.4,2.1,1.2,2.1C101.7,25.8,102.1,25,102.1,23.8z"/>
		<path class="st0" d="M104.6,26.7l0.1-1.2c0.4,0.2,1,0.3,1.4,0.3c0.7,0,1.2-0.3,1.2-0.9c0-0.7-0.5-0.7-1.1-0.7c-0.1,0-0.4,0-0.6,0
			v-1.1c0.2,0,0.5,0,0.5,0c0.5,0,1.1-0.2,1.1-0.8c0-0.5-0.5-0.7-1-0.7c-0.5,0-1.1,0.2-1.5,0.4l-0.1-1.2c0.4-0.1,1.1-0.4,1.9-0.4
			c1.2,0,2.1,0.4,2.1,1.7c0,0.7-0.4,1.2-1,1.4c0.7,0.2,1.1,0.7,1.1,1.5c0,1.3-1,1.9-2.3,1.9C105.7,27,105.1,26.9,104.6,26.7z"/>
		<path class="st0" d="M111.3,24.4c-1-0.4-1.2-1.3-1.2-1.8c0-1.3,0.8-2,2.4-2h2.3v6.2h-1.5v-2.2h-0.7l-1.2,2.2h-1.7L111.3,24.4z
			 M113.4,23.6v-1.8h-0.8c-0.7,0-1,0.3-1,0.9c0,0.6,0.4,0.9,1,0.9H113.4z"/>
		<path class="st0" d="M116.6,20.7h1.4V23c0,0.6,0,1.4,0,1.9l1.9-4.3h1.7v6.2h-1.4v-2.6c0-0.7,0-1.2,0-1.6l-1.9,4.2h-1.7V20.7z
			 M117.3,18.4l0.6-0.3c0.2,0.4,0.5,0.9,1.1,0.9s1-0.4,1.1-0.9l0.6,0.3c-0.2,0.6-0.7,1.5-1.8,1.5C118,19.9,117.5,19,117.3,18.4z"/>
		<path class="st0" d="M123.1,23.7c0-1.9,1.1-3.2,3-3.2c0.3,0,0.7,0,1,0.1l-0.1,1.2c-0.2-0.1-0.4-0.1-0.7-0.1c-1,0-1.6,0.9-1.6,2
			c0,1.2,0.6,2,1.7,2c0.2,0,0.5,0,0.7-0.1l0.1,1.2c-0.3,0.1-0.6,0.1-1.1,0.1C124.2,26.9,123.1,25.7,123.1,23.7z"/>
		<path class="st0" d="M129.5,21.8h-1.6v-1.2h4.7v1.2H131v5h-1.5V21.8z"/>
		<path class="st0" d="M133.8,20.7h2.7c1.2,0,2,0.6,2,1.6c0,0.8-0.5,1.2-1.1,1.4c0.7,0.1,1.2,0.6,1.2,1.5c0,1.2-0.8,1.8-2.1,1.8
			h-2.7V20.7z M136.2,23.1c0.5,0,0.7-0.3,0.7-0.7c0-0.5-0.3-0.7-0.7-0.7h-0.9v1.4H136.2z M136.3,25.8c0.5,0,0.8-0.3,0.8-0.8
			c0-0.5-0.3-0.8-0.8-0.8h-1v1.6H136.3z"/>
		<path class="st0" d="M139.8,23.7c0-1.9,1.1-3.2,2.7-3.2c1.6,0,2.4,1.1,2.4,3.1c0,0.2,0,0.4,0,0.6h-3.6c0,0.9,0.6,1.6,1.8,1.6
			c0.5,0,0.9-0.1,1.4-0.3l0,1.2c-0.5,0.2-1,0.3-1.6,0.3C140.9,27,139.8,25.7,139.8,23.7z M143.5,23.2c0-1-0.4-1.7-1.1-1.7
			c-0.7,0-1.2,0.6-1.2,1.7H143.5z"/>
		<path class="st0" d="M146.4,20.7h1.5v2.4h1.9v-2.4h1.5v6.2h-1.5v-2.6h-1.9v2.6h-1.5V20.7z"/>
		<path class="st0" d="M153.1,20.7h1.5v2.4h1.9v-2.4h1.5v6.2h-1.5v-2.6h-1.9v2.6h-1.5V20.7z"/>
		<path class="st0" d="M159.5,25c0-1.3,1-2.1,2.8-2.1c0.2,0,0.5,0,0.8,0v0c0-0.9-0.4-1.4-1.3-1.4c-0.6,0-1.2,0.2-1.7,0.5l-0.1-1.2
			c0.6-0.3,1.3-0.4,2-0.4c1.8,0,2.4,1,2.4,2.5c0,0.6,0,1.5,0,1.9c0,0.7,0,1.4,0.1,1.9h-1.3c0-0.1,0-0.3,0-0.5c0-0.1,0-0.3,0-0.5h0
			c-0.3,0.7-0.9,1.1-1.8,1.1C160.2,26.9,159.5,26.2,159.5,25z M163.1,23.9c-0.1,0-0.3,0-0.5,0c-1.1,0-1.7,0.4-1.7,1.1
			c0,0.5,0.3,0.9,0.9,0.9C162.7,25.9,163.1,25.1,163.1,23.9z"/>
		<path class="st0" d="M167.1,24.4c-1-0.4-1.2-1.3-1.2-1.8c0-1.3,0.8-2,2.4-2h2.3v6.2h-1.5v-2.2h-0.7l-1.2,2.2h-1.7L167.1,24.4z
			 M169.2,23.6v-1.8h-0.8c-0.7,0-1,0.3-1,0.9c0,0.6,0.4,0.9,1,0.9H169.2z"/>
		<path class="st0" d="M175,23.7c0-1.9,1-3.2,2.7-3.2c1.7,0,2.7,1.3,2.7,3.2c0,1.9-1,3.2-2.7,3.2C176,27,175,25.7,175,23.7z
			 M178.9,23.8c0-1.3-0.4-2.1-1.2-2.1c-0.7,0-1.1,0.8-1.1,2.1c0,1.2,0.4,2.1,1.2,2.1C178.5,25.8,178.9,25,178.9,23.8z"/>
		<path class="st0" d="M181.9,22.5c0-0.6,0-1.4-0.1-1.8h1.4c0,0.3,0,0.6,0.1,0.9h0c0.3-0.7,0.8-1.1,1.6-1.1c1.4,0,2.3,1.3,2.3,3.2
			c0,1.9-0.8,3.3-2.2,3.3c-0.8,0-1.3-0.3-1.6-1h0c0,0.3,0,1,0,1.5v1.9h-1.5V22.5z M185.6,23.7c0-1.2-0.4-2.1-1.1-2.1
			c-0.8,0-1.2,0.9-1.2,2.1c0,1.2,0.4,2.1,1.2,2.1C185.2,25.9,185.6,24.9,185.6,23.7z"/>
		<path class="st0" d="M188.7,20.7h3.8v1.2h-2.3v5h-1.5V20.7z"/>
		<path class="st0" d="M193.2,25c0-1.3,1-2.1,2.8-2.1c0.2,0,0.5,0,0.8,0v0c0-0.9-0.4-1.4-1.3-1.4c-0.6,0-1.2,0.2-1.7,0.5l-0.1-1.2
			c0.6-0.3,1.3-0.4,2-0.4c1.8,0,2.4,1,2.4,2.5c0,0.6,0,1.5,0,1.9c0,0.7,0,1.4,0.1,1.9h-1.3c0-0.1,0-0.3,0-0.5c0-0.1,0-0.3,0-0.5h0
			c-0.3,0.7-0.9,1.1-1.8,1.1C193.8,26.9,193.2,26.2,193.2,25z M196.7,23.9c-0.1,0-0.3,0-0.5,0c-1.1,0-1.7,0.4-1.7,1.1
			c0,0.5,0.3,0.9,0.9,0.9C196.4,25.9,196.7,25.1,196.7,23.9z"/>
		<path class="st0" d="M199.8,20.7h1.5v2.4h1.9v-2.4h1.5v6.2h-1.5v-2.6h-1.9v2.6h-1.5V20.7z"/>
		<path class="st0" d="M206.5,20.7h1.4V23c0,0.6,0,1.4,0,1.9l1.9-4.3h1.7v6.2h-1.4v-2.6c0-0.7,0-1.2,0-1.6l-1.9,4.2h-1.7V20.7z"/>
		<path class="st0" d="M212.9,26.7l0.1-1.2c0.4,0.2,1,0.3,1.4,0.3c0.7,0,1.2-0.3,1.2-0.9c0-0.7-0.5-0.7-1.1-0.7c-0.1,0-0.4,0-0.6,0
			v-1.1c0.2,0,0.5,0,0.5,0c0.5,0,1.1-0.2,1.1-0.8c0-0.5-0.5-0.7-1-0.7c-0.5,0-1.1,0.2-1.5,0.4l-0.1-1.2c0.4-0.1,1.1-0.4,1.9-0.4
			c1.2,0,2.1,0.4,2.1,1.7c0,0.7-0.4,1.2-1,1.4c0.7,0.2,1.1,0.7,1.1,1.5c0,1.3-1,1.9-2.3,1.9C214,27,213.4,26.9,212.9,26.7z"/>
		<path class="st0" d="M218.3,25c0-1.3,1-2.1,2.8-2.1c0.2,0,0.5,0,0.8,0v0c0-0.9-0.4-1.4-1.3-1.4c-0.6,0-1.2,0.2-1.7,0.5l-0.1-1.2
			c0.6-0.3,1.3-0.4,2-0.4c1.8,0,2.4,1,2.4,2.5c0,0.6,0,1.5,0,1.9c0,0.7,0,1.4,0.1,1.9h-1.3c0-0.1,0-0.3,0-0.5c0-0.1,0-0.3,0-0.5h0
			c-0.3,0.7-0.9,1.1-1.8,1.1C219,26.9,218.3,26.2,218.3,25z M221.9,23.9c-0.1,0-0.3,0-0.5,0c-1.1,0-1.7,0.4-1.7,1.1
			c0,0.5,0.3,0.9,0.9,0.9C221.5,25.9,221.9,25.1,221.9,23.9z"/>
		<path class="st0" d="M229.2,26.8H225v-6.2h1.5v5h1.9v-5h1.5v5h0.7v2.8h-1.3V26.8z"/>
		<path class="st0" d="M231.7,20.7h1.4V23c0,0.6,0,1.4,0,1.9l1.9-4.3h1.7v6.2h-1.4v-2.6c0-0.7,0-1.2,0-1.6l-1.9,4.2h-1.7V20.7z"/>
		<path class="st0" d="M239.5,24.4c-1-0.4-1.2-1.3-1.2-1.8c0-1.3,0.8-2,2.4-2h2.3v6.2h-1.5v-2.2h-0.7l-1.2,2.2H238L239.5,24.4z
			 M241.6,23.6v-1.8h-0.8c-0.7,0-1,0.3-1,0.9c0,0.6,0.4,0.9,1,0.9H241.6z"/>
		<path class="st0" d="M50.7,36.2c0-2.7,1.2-4.4,3.4-4.4c2.1,0,3.3,1.7,3.3,4.3c0,2.7-1.2,4.4-3.4,4.4C52,40.5,50.7,38.9,50.7,36.2z
			 M55.9,36.2c0-2-0.6-3.2-1.8-3.2c-1.1,0-1.8,1.2-1.8,3.1c0,1.9,0.7,3.1,1.8,3.1C55.2,39.3,55.9,38.1,55.9,36.2z"/>
		<path class="st0" d="M58.9,36.8c0-1.8,0.1-3.4,1-4.4c1.1-1.2,2.9-0.7,4.1-1.1l-0.1,1.4c-0.9,0.3-2.4,0-3.1,0.6
			c-0.7,0.5-0.9,1.3-0.9,2.4c0.2-0.8,1-1.5,1.9-1.5c1.5,0,2.5,1.2,2.5,3.1c0,1.7-0.9,3.2-2.7,3.2C59.5,40.5,58.9,38.9,58.9,36.8z
			 M62.7,37.4c0-1.1-0.3-2-1.1-2c-0.8,0-1.1,0.9-1.1,2c0,1.2,0.4,2,1.1,2C62.4,39.4,62.7,38.5,62.7,37.4z"/>
		<path class="st0" d="M66.3,35.4H65v-1.2h2.8v2.3H69c1.2,0,2.1,0.7,2.1,2c0,1.3-0.8,2-2.4,2h-2.4V35.4z M68.7,39.3
			c0.6,0,0.9-0.4,0.9-0.9c0-0.6-0.3-0.9-0.9-0.9h-1v1.8H68.7z"/>
		<path class="st0" d="M72.2,37.3c0-1.9,1.1-3.2,2.7-3.2c1.6,0,2.4,1.1,2.4,3.1c0,0.2,0,0.4,0,0.6h-3.6c0,0.9,0.6,1.6,1.8,1.6
			c0.5,0,0.9-0.1,1.4-0.3l0,1.2c-0.5,0.2-1,0.3-1.6,0.3C73.2,40.5,72.2,39.3,72.2,37.3z M75.9,36.7c0-1-0.4-1.7-1.1-1.7
			c-0.7,0-1.2,0.6-1.2,1.7H75.9z"/>
		<path class="st0" d="M78.1,39.2h0.6c0.4-0.7,0.6-1.7,0.6-3.2v-1.8h4.5v5h0.7V42h-1.3v-1.6h-3.8V42h-1.3V39.2z M82.3,39.2v-3.8
			h-1.6v0.9c0,1.1-0.1,2.2-0.5,2.9H82.3z"/>
		<path class="st0" d="M85.7,34.2h1.4v2.3c0,0.6,0,1.4,0,1.9l1.9-4.3h1.7v6.2h-1.4v-2.6c0-0.7,0-1.2,0-1.6l-1.9,4.2h-1.7V34.2z"/>
		<path class="st0" d="M92.5,34.2h1.5v2.4h1.9v-2.4h1.5v6.2h-1.5v-2.6h-1.9v2.6h-1.5V34.2z"/>
		<path class="st0" d="M98.8,37.3c0-1.9,1.1-3.2,2.7-3.2c1.6,0,2.4,1.1,2.4,3.1c0,0.2,0,0.4,0,0.6h-3.6c0,0.9,0.6,1.6,1.8,1.6
			c0.5,0,0.9-0.1,1.4-0.3l0,1.2c-0.5,0.2-1,0.3-1.6,0.3C99.9,40.5,98.8,39.3,98.8,37.3z M102.6,36.7c0-1-0.4-1.7-1.1-1.7
			c-0.7,0-1.2,0.6-1.2,1.7H102.6z"/>
		<path class="st0" d="M105.4,34.2h1.5v2.4h1.9v-2.4h1.5v6.2h-1.5v-2.6h-1.9v2.6h-1.5V34.2z"/>
		<path class="st0" d="M112.1,34.2h1.5v2.4h1.9v-2.4h1.5v6.2h-1.5v-2.6h-1.9v2.6h-1.5V34.2z"/>
		<path class="st0" d="M118.8,34.2h1.5v2.3h1.1c1.2,0,2.1,0.7,2.1,2c0,1.3-0.8,2-2.4,2h-2.4V34.2z M121.2,39.3
			c0.6,0,0.9-0.4,0.9-0.9c0-0.6-0.3-0.9-0.9-0.9h-1v1.8H121.2z M124.3,34.2h1.5v6.2h-1.5V34.2z"/>
		<path class="st0" d="M128.8,37.1l-1.7-2.9h1.7c0.6,1.3,0.9,1.8,1,2.2h0c0.1-0.3,0.3-0.9,1-2.2h1.5l-1.7,2.9l1.8,3.2h-1.7
			c-0.7-1.5-1-2.1-1.1-2.4h0c-0.1,0.3-0.4,0.9-1.1,2.4H127L128.8,37.1z"/>
		<path class="st0" d="M136.6,32h1.5v3.4h2.5V32h1.5v8.4h-1.5v-3.7h-2.5v3.7h-1.5V32z"/>
		<path class="st0" d="M143.8,38.6c0-1.3,1-2.1,2.8-2.1c0.2,0,0.5,0,0.8,0v0c0-0.9-0.4-1.4-1.3-1.4c-0.6,0-1.2,0.2-1.7,0.5l-0.1-1.2
			c0.6-0.3,1.3-0.4,2-0.4c1.8,0,2.4,1,2.4,2.5c0,0.6,0,1.5,0,1.9c0,0.7,0,1.4,0.1,1.9h-1.3c0-0.1,0-0.3,0-0.5c0-0.1,0-0.3,0-0.5h0
			c-0.3,0.7-0.9,1.1-1.8,1.1C144.5,40.5,143.8,39.7,143.8,38.6z M147.4,37.5c-0.1,0-0.3,0-0.5,0c-1.1,0-1.7,0.4-1.7,1.1
			c0,0.5,0.3,0.9,0.9,0.9C147,39.5,147.4,38.6,147.4,37.5z"/>
		<path class="st0" d="M154.7,40.4h-4.2v-6.2h1.5v5h1.9v-5h1.5v5h0.7V42h-1.3V40.4z"/>
		<path class="st0" d="M157.2,34.2h1.4v2.3c0,0.6,0,1.4,0,1.9l1.9-4.3h1.7v6.2h-1.4v-2.6c0-0.7,0-1.2,0-1.6l-1.9,4.2h-1.7V34.2z"/>
		<path class="st0" d="M164,34.2h1.4v2.3c0,0.6,0,1.4,0,1.9l1.9-4.3h1.7v6.2h-1.4v-2.6c0-0.7,0-1.2,0-1.6l-1.9,4.2H164V34.2z
			 M164.7,31.9l0.6-0.3c0.2,0.4,0.5,0.9,1.1,0.9c0.6,0,1-0.4,1.1-0.9l0.6,0.3c-0.2,0.6-0.7,1.5-1.8,1.5
			C165.4,33.4,164.9,32.6,164.7,31.9z"/>
	</g>
</g>
</svg>
